Analyze a conjoint data set and correct for measurement error — projoint • projoint
…
reshaped_data <- reshape_projoint(
  .dataframe = exampleData1, 
  .idvar = "ResponseId", 
  .outcomes = outcomes,
  .outcomes_ids = c("A", "B"),
  .alphabet = "K", 
  .repeated = TRUE,
  .flipped = TRUE)

projoint(reshaped_data) 
#> An object of class "projoint_results_mm"
#> Slot "estimates":
#> # A tibble: 48 × 5
#>    estimand       estimate     se attribute level 
#>    <chr>             <dbl>  <dbl> <chr>     <chr> 
#>  1 mm_uncorrected    0.574 0.0134 att1      level1
#>  2 mm_corrected      0.614 0.0207 att1      level1
#>  3 mm_uncorrected    0.485 0.0134 att1      level2
#>  4 mm_corrected      0.477 0.0204 att1      level2
#>  5 mm_uncorrected    0.445 0.0131 att1      level3
#>  6 mm_corrected      0.416 0.0203 att1      level3
#>  7 mm_uncorrected    0.489 0.0133 att2      level1
#>  8 mm_corrected      0.483 0.0202 att2      level1
#>  9 mm_uncorrected    0.524 0.0130 att2      level2
#> 10 mm_corrected      0.536 0.0200 att2      level2
#> # ℹ 38 more rows
#> 
#> Slot "labels":
#> # A tibble: 24 × 4
#>    attribute                level                        attribute_id level_id  
#>    <chr>                    <chr>                        <chr>        <chr>     
#>  1 Housing Cost             15% of pre-tax income        att1         att1:leve…
#>  2 Housing Cost             30% of pre-tax income        att1         att1:leve…
#>  3 Housing Cost             40% of pre-tax income        att1         att1:leve…
#>  4 Presidential Vote (2020) 30% Democrat, 70% Republican att2         att2:leve…
#>  5 Presidential Vote (2020) 50% Democrat, 50% Republican att2         att2:leve…
#>  6 Presidential Vote (2020) 70% Democrat, 30% Republican att2         att2:leve…
#>  7 Racial Composition       50% White, 50% Nonwhite      att3         att3:leve…
#>  8 Racial Composition       75% White, 25% Nonwhite      att3         att3:leve…
#>  9 Racial Composition       90% White, 10% Nonwhite      att3         att3:leve…
#> 10 Racial Composition       96% White, 4% Nonwhite       att3         att3:leve…
#> # ℹ 14 more rows
#> 
#> Slot "data":
#> # A tibble: 6,400 × 13
#>    id            task profile att4  att7  att3  att1  att2  att5  att6  selected
#>    <chr>        <dbl>   <dbl> <fct> <fct> <fct> <fct> <fct> <fct> <fct>    <dbl>
#>  1 R_1M3TDihZz…     1       1 att4… att7… att3… att1… att2… att5… att6…        0
#>  2 R_1M3TDihZz…     1       2 att4… att7… att3… att1… att2… att5… att6…        1
#>  3 R_1M3TDihZz…     2       1 att4… att7… att3… att1… att2… att5… att6…        0
#>  4 R_1M3TDihZz…     2       2 att4… att7… att3… att1… att2… att5… att6…        1
#>  5 R_1M3TDihZz…     3       1 att4… att7… att3… att1… att2… att5… att6…        0
#>  6 R_1M3TDihZz…     3       2 att4… att7… att3… att1… att2… att5… att6…        1
#>  7 R_1M3TDihZz…     4       1 att4… att7… att3… att1… att2… att5… att6…        1
#>  8 R_1M3TDihZz…     4       2 att4… att7… att3… att1… att2… att5… att6…        0
#>  9 R_1M3TDihZz…     5       1 att4… att7… att3… att1… att2… att5… att6…        0
#> 10 R_1M3TDihZz…     5       2 att4… att7… att3… att1… att2… att5… att6…        1
#> # ℹ 6,390 more rows
#> # ℹ 2 more variables: selected_repeated <dbl>, agree <dbl>
…
