Analyze Your Conjoint Data • projoint
…
We recommend working with attribute IDs rather than
actual text labels because:

Safer against special characters, languages, or typos

Allows multiple attributes to have identical labels
(e.g., “High” for both “Teaching Quality” and “Research Quality”)

Check attribute-level mappings:

out1$labels

## # A tibble: 24 × 4
##    attribute                level                        attribute_id level_id  
##    <chr>                    <chr>                        <chr>        <chr>     
##  1 Housing Cost             15% of pre-tax income        att1         att1:leve…
##  2 Housing Cost             30% of pre-tax income        att1         att1:leve…
##  3 Housing Cost             40% of pre-tax income        att1         att1:leve…
##  4 Presidential Vote (2020) 30% Democrat, 70% Republican att2         att2:leve…
##  5 Presidential Vote (2020) 50% Democrat, 50% Republican att2         att2:leve…
##  6 Presidential Vote (2020) 70% Democrat, 30% Republican att2         att2:leve…
##  7 Racial Composition       50% White, 50% Nonwhite      att3         att3:leve…
##  8 Racial Composition       75% White, 25% Nonwhite      att3         att3:leve…
##  9 Racial Composition       90% White, 10% Nonwhite      att3         att3:leve…
## 10 Racial Composition       96% White, 4% Nonwhite       att3         att3:leve…
## # ℹ 14 more rows
…
summary(mm0)

## 
## Summary of Projoint Estimates
## ------------------------------
## Estimand:  mm 
## Structure:  profile_level 
## Standard error method:  analytical 
## IRR:  Estimated 
## Tau:  0.172

## # A tibble: 48 × 6
##    estimand       estimate     se conf.low conf.high att_level_choose
##    <chr>             <dbl>  <dbl>    <dbl>     <dbl> <chr>           
##  1 mm_uncorrected    0.574 0.0134    0.548     0.601 att1:level1     
##  2 mm_corrected      0.614 0.0207    0.573     0.654 att1:level1     
##  3 mm_uncorrected    0.485 0.0134    0.458     0.511 att1:level2     
##  4 mm_corrected      0.477 0.0204    0.437     0.517 att1:level2     
##  5 mm_uncorrected    0.445 0.0131    0.419     0.470 att1:level3     
##  6 mm_corrected      0.416 0.0203    0.376     0.455 att1:level3     
##  7 mm_uncorrected    0.489 0.0133    0.463     0.515 att2:level1     
##  8 mm_corrected      0.483 0.0202    0.443     0.522 att2:level1     
##  9 mm_uncorrected    0.524 0.0130    0.498     0.549 att2:level2     
## 10 mm_corrected      0.536 0.0200    0.497     0.575 att2:level2     
## # ℹ 38 more rows
…
summary(amce0)

## 
## Summary of Projoint Estimates
## ------------------------------
## Estimand:  amce 
## Structure:  profile_level 
## Standard error method:  analytical 
## IRR:  Estimated 
## Tau:  0.172

## # A tibble: 34 × 7
##    estimand         estimate     se conf.low conf.high att_level_choose
##    <chr>               <dbl>  <dbl>    <dbl>     <dbl> <chr>           
##  1 amce_uncorrected -0.0899  0.0190 -0.127     -0.0527 att1:level2     
##  2 amce_corrected   -0.137   0.0290 -0.194     -0.0801 att1:level2     
##  3 amce_uncorrected -0.130   0.0188 -0.167     -0.0931 att1:level3     
##  4 amce_corrected   -0.198   0.0294 -0.256     -0.140  att1:level3     
##  5 amce_uncorrected  0.0348  0.0186 -0.00170    0.0713 att2:level2     
##  6 amce_corrected    0.0530  0.0284 -0.00258    0.109  att2:level2     
##  7 amce_uncorrected -0.00177 0.0188 -0.0386     0.0350 att2:level3     
##  8 amce_corrected   -0.00270 0.0286 -0.0589     0.0535 att2:level3     
##  9 amce_uncorrected  0.0240  0.0204 -0.0159     0.0640 att3:level2     
## 10 amce_corrected    0.0366  0.0312 -0.0246     0.0979 att3:level2     
## # ℹ 24 more rows
## # ℹ 1 more variable: att_level_choose_baseline <chr>
…
