Wrangle Your Data • projoint
…
fill_TRUE <- reshape_projoint(
  .dataframe = exampleData1,
  .outcomes = outcomes1,
  .fill = TRUE
)

Compare:

selected_vars <- c("id", "task", "profile", "selected", "selected_repeated", "agree")
fill_FALSE$data[selected_vars]

## # A tibble: 6,400 × 6
##    id                 task profile selected selected_repeated agree
##    <chr>             <dbl>   <dbl>    <dbl>             <dbl> <dbl>
##  1 R_00zYHdY1te1Qlrz     1       1        1                 1     1
##  2 R_00zYHdY1te1Qlrz     1       2        0                 0     1
##  3 R_00zYHdY1te1Qlrz     2       1        1                NA    NA
##  4 R_00zYHdY1te1Qlrz     2       2        0                NA    NA
##  5 R_00zYHdY1te1Qlrz     3       1        1                NA    NA
##  6 R_00zYHdY1te1Qlrz     3       2        0                NA    NA
##  7 R_00zYHdY1te1Qlrz     4       1        0                NA    NA
##  8 R_00zYHdY1te1Qlrz     4       2        1                NA    NA
##  9 R_00zYHdY1te1Qlrz     5       1        1                NA    NA
## 10 R_00zYHdY1te1Qlrz     5       2        0                NA    NA
## # ℹ 6,390 more rows

fill_TRUE$data[selected_vars]

## # A tibble: 6,400 × 6
##    id                 task profile selected selected_repeated agree
##    <chr>             <dbl>   <dbl>    <dbl>             <dbl> <dbl>
##  1 R_00zYHdY1te1Qlrz     1       1        1                 1     1
##  2 R_00zYHdY1te1Qlrz     1       2        0                 0     1
##  3 R_00zYHdY1te1Qlrz     2       1        1                NA     1
##  4 R_00zYHdY1te1Qlrz     2       2        0                NA     1
##  5 R_00zYHdY1te1Qlrz     3       1        1                NA     1
##  6 R_00zYHdY1te1Qlrz     3       2        0                NA     1
##  7 R_00zYHdY1te1Qlrz     4       1        0                NA     1
##  8 R_00zYHdY1te1Qlrz     4       2        1                NA     1
##  9 R_00zYHdY1te1Qlrz     5       1        1                NA     1
## 10 R_00zYHdY1te1Qlrz     5       2        0                NA     1
## # ℹ 6,390 more rows
…
