02. Read and wrangle your data for conjoint analysis • projoint
…
We just select the essential variables only. The first data frame
includes the values for the agree variable (whether the
same profile was chosen or not) only for the repeated task. The second
data frame fills the missing values for the other non-repeated
tasks.

selected_vars <- c("id", "task", "profile", "selected", "selected_repeated", "agree")
fill_FALSE@data[selected_vars]

## # A tibble: 6,400 × 6
##    id                 task profile selected selected_repeated agree
##    <chr>             <dbl>   <dbl>    <dbl>             <dbl> <dbl>
##  1 R_00zYHdY1te1Qlrz     1       1        1                 1     1
##  2 R_00zYHdY1te1Qlrz     1       2        0                 0     1
##  3 R_00zYHdY1te1Qlrz     2       1        1                NA    NA
##  4 R_00zYHdY1te1Qlrz     2       2        0                NA    NA
##  5 R_00zYHdY1te1Qlrz     3       1        1                NA    NA
##  6 R_00zYHdY1te1Qlrz     3       2        0                NA    NA
##  7 R_00zYHdY1te1Qlrz     4       1        0                NA    NA
##  8 R_00zYHdY1te1Qlrz     4       2        1                NA    NA
##  9 R_00zYHdY1te1Qlrz     5       1        1                NA    NA
## 10 R_00zYHdY1te1Qlrz     5       2        0                NA    NA
## # ℹ 6,390 more rows

fill_TRUE@data[selected_vars]

## # A tibble: 6,400 × 6
##    id                 task profile selected selected_repeated agree
##    <chr>             <dbl>   <dbl>    <dbl>             <dbl> <dbl>
##  1 R_00zYHdY1te1Qlrz     1       1        1                 1     1
##  2 R_00zYHdY1te1Qlrz     1       2        0                 0     1
##  3 R_00zYHdY1te1Qlrz     2       1        1                NA     1
##  4 R_00zYHdY1te1Qlrz     2       2        0                NA     1
##  5 R_00zYHdY1te1Qlrz     3       1        1                NA     1
##  6 R_00zYHdY1te1Qlrz     3       2        0                NA     1
##  7 R_00zYHdY1te1Qlrz     4       1        0                NA     1
##  8 R_00zYHdY1te1Qlrz     4       2        1                NA     1
##  9 R_00zYHdY1te1Qlrz     5       1        1                NA     1
## 10 R_00zYHdY1te1Qlrz     5       2        0                NA     1
## # ℹ 6,390 more rows
…
data <- exampleData1_labelled_tibble

It should looks like the following. Each row should correspond to
each of two profiles in each task for each respondent. The data frame
should have columns indicating (1) each respondent’s ID, (2) task
number, (3) profile number, and (4) a column recording each response (0,
1) for each task. If your design includes the repeated task, it should
also include a column recording the response for the repeated task.

data

## # A tibble: 6,400 × 14
##    id                 task profile selected selected_repeated `School Quality`
##    <chr>             <dbl>   <dbl>    <dbl>             <dbl> <chr>           
##  1 R_00zYHdY1te1Qlrz     1       1        1                 1 9 out of 10     
##  2 R_00zYHdY1te1Qlrz     1       2        0                 0 5 out of 10     
##  3 R_00zYHdY1te1Qlrz     2       1        1                NA 9 out of 10     
##  4 R_00zYHdY1te1Qlrz     2       2        0                NA 9 out of 10     
##  5 R_00zYHdY1te1Qlrz     3       1        1                NA 5 out of 10     
##  6 R_00zYHdY1te1Qlrz     3       2        0                NA 9 out of 10     
##  7 R_00zYHdY1te1Qlrz     4       1        0                NA 5 out of 10     
##  8 R_00zYHdY1te1Qlrz     4       2        1                NA 9 out of 10     
##  9 R_00zYHdY1te1Qlrz     5       1        1                NA 5 out of 10     
## 10 R_00zYHdY1te1Qlrz     5       2        0                NA 5 out of 10     
## # ℹ 6,390 more rows
## # ℹ 8 more variables: `Violent Crime Rate (Vs National Rate)` <chr>,
## #   `Racial Composition` <chr>, `Housing Cost` <chr>,
## #   `Presidential Vote (2020)` <chr>,
## #   `Total Daily Driving Time for Commuting and Errands` <chr>,
## #   `Type of Place` <chr>, race <fct>, ideology <fct>
…
The output will be the same as the output of fill_FALSE
in the previous section.

out4

## An object of class "projoint_data"
## Slot "labels":
## # A tibble: 24 × 4
##    attribute_id level                        level_id  attribute               
##    <chr>        <chr>                        <chr>     <chr>                   
##  1 att1         15% of pre-tax income        att1:lev1 Housing Cost            
##  2 att1         30% of pre-tax income        att1:lev2 Housing Cost            
##  3 att1         40% of pre-tax income        att1:lev3 Housing Cost            
##  4 att2         30% Democrat, 70% Republican att2:lev1 Presidential Vote (2020)
##  5 att2         50% Democrat, 50% Republican att2:lev2 Presidential Vote (2020)
##  6 att2         70% Democrat, 30% Republican att2:lev3 Presidential Vote (2020)
##  7 att3         50% White, 50% Nonwhite      att3:lev1 Racial Composition      
##  8 att3         75% White, 25% Nonwhite      att3:lev2 Racial Composition      
##  9 att3         90% White, 10% Nonwhite      att3:lev3 Racial Composition      
## 10 att3         96% White, 4% Nonwhite       att3:lev4 Racial Composition      
## # ℹ 14 more rows
## 
## Slot "data":
## # A tibble: 6,400 × 13
##    id      task profile selected selected_repeated agree att4  att7  att3  att1 
##    <chr>  <dbl>   <dbl>    <dbl>             <dbl> <dbl> <chr> <chr> <chr> <chr>
##  1 R_00z…     1       1        1                 1     1 att4… att7… att3… att1…
##  2 R_00z…     1       2        0                 0     1 att4… att7… att3… att1…
##  3 R_00z…     2       1        1                NA     1 att4… att7… att3… att1…
##  4 R_00z…     2       2        0                NA     1 att4… att7… att3… att1…
##  5 R_00z…     3       1        1                NA     1 att4… att7… att3… att1…
##  6 R_00z…     3       2        0                NA     1 att4… att7… att3… att1…
##  7 R_00z…     4       1        0                NA     1 att4… att7… att3… att1…
##  8 R_00z…     4       2        1                NA     1 att4… att7… att3… att1…
##  9 R_00z…     5       1        1                NA     1 att4… att7… att3… att1…
## 10 R_00z…     5       2        0                NA     1 att4… att7… att3… att1…
## # ℹ 6,390 more rows
## # ℹ 3 more variables: att2 <chr>, att5 <chr>, att6 <chr>
…
