04. Estimate and correct MMs or AMCEs • projoint
…
Estimate MMs

MM (profile-level) – all levels

mm0 <- projoint(.data = out1,
                .qoi = NULL,
                .structure = "profile_level",
                .remove_ties = TRUE,
                .estimand = "mm",
                .se_method = "analytical",
                .irr = NULL)

mm0@estimates

## # A tibble: 48 × 5
##    estimand       estimate     se attribute level 
##    <chr>             <dbl>  <dbl> <chr>     <chr> 
##  1 mm_uncorrected    0.574 0.0134 att1      level1
##  2 mm_corrected      0.614 0.0207 att1      level1
##  3 mm_uncorrected    0.485 0.0134 att1      level2
##  4 mm_corrected      0.477 0.0204 att1      level2
##  5 mm_uncorrected    0.445 0.0131 att1      level3
##  6 mm_corrected      0.416 0.0203 att1      level3
##  7 mm_uncorrected    0.489 0.0133 att2      level1
##  8 mm_corrected      0.483 0.0202 att2      level1
##  9 mm_uncorrected    0.524 0.0130 att2      level2
## 10 mm_corrected      0.536 0.0200 att2      level2
## # ℹ 38 more rows
…
Estimate AMCEs

AMCE (profile-level) – all levels

amce0 <- projoint(.data = out1,
                  .qoi = NULL,
                  .structure = "profile_level",
                  .remove_ties = TRUE,
                  .estimand = "amce",
                  .se_method = "analytical",
                  .irr = NULL)

amce0@estimates

## # A tibble: 34 × 6
##    estimand         estimate     se attribute level  baseline
##    <chr>               <dbl>  <dbl> <chr>     <chr>  <chr>   
##  1 amce_uncorrected -0.0899  0.0190 att1      level2 level1  
##  2 amce_corrected   -0.137   0.0290 att1      level2 level1  
##  3 amce_uncorrected -0.130   0.0188 att1      level3 level1  
##  4 amce_corrected   -0.198   0.0294 att1      level3 level1  
##  5 amce_uncorrected  0.0348  0.0186 att2      level2 level1  
##  6 amce_corrected    0.0530  0.0284 att2      level2 level1  
##  7 amce_uncorrected -0.00177 0.0188 att2      level3 level1  
##  8 amce_corrected   -0.00270 0.0286 att2      level3 level1  
##  9 amce_uncorrected  0.0240  0.0204 att3      level2 level1  
## 10 amce_corrected    0.0366  0.0312 att3      level2 level1  
## # ℹ 24 more rows
…
