06. Compare MMs or AMCEs between the subgroups • projoint
…
out_0 <- projoint(df_0)
out_1 <- projoint(df_1)
out_d <- projoint(df_d, .by_var = "white")

Importantly, if your conjoint design includes the repeated task, the
projoint() function applied to each subgroup will estimate
IRR for the corresponding subgroup. The output of out_d
includes the data for these differences

out_d@estimates

## # A tibble: 48 × 11
##    estimand  att_level_choose estimate_1   se_1   tau estimate_0   se_0 estimate
##    <chr>     <chr>                 <dbl>  <dbl> <dbl>      <dbl>  <dbl>    <dbl>
##  1 mm_uncor… att1:level1           0.586 0.0157 0.158      0.545 0.0258   0.0401
##  2 mm_corre… att1:level1           0.625 0.0236 0.158      0.579 0.0433   0.0464
##  3 mm_uncor… att1:level2           0.480 0.0158 0.158      0.496 0.0250  -0.0163
##  4 mm_corre… att1:level2           0.471 0.0233 0.158      0.494 0.0432  -0.0229
##  5 mm_uncor… att1:level3           0.439 0.0153 0.158      0.460 0.0254  -0.0210
##  6 mm_corre… att1:level3           0.411 0.0227 0.158      0.431 0.0446  -0.0200
##  7 mm_uncor… att2:level1           0.529 0.0154 0.158      0.510 0.0245   0.0195
##  8 mm_corre… att2:level1           0.543 0.0226 0.158      0.517 0.0425   0.0260
##  9 mm_uncor… att2:level2           0.500 0.0157 0.158      0.461 0.0248   0.0394
## 10 mm_corre… att2:level2           0.500 0.0230 0.158      0.432 0.0417   0.0683
## # ℹ 38 more rows
## # ℹ 3 more variables: se <dbl>, conf.low <dbl>, conf.high <dbl>
…
