Analyze and Visualize Important QOIs • projoint
…
We recommend working with attribute IDs rather than
actual text labels because:

Safer against special characters, languages, or typos

Allows multiple attributes to have identical labels
(e.g., “High” for both “Teaching Quality” and “Research Quality”)

Check attribute-level mappings:

out1$labels

## # A tibble: 24 × 4
##    attribute                level                        attribute_id level_id  
##    <chr>                    <chr>                        <chr>        <chr>     
##  1 Housing Cost             15% of pre-tax income        att1         att1:leve…
##  2 Housing Cost             30% of pre-tax income        att1         att1:leve…
##  3 Housing Cost             40% of pre-tax income        att1         att1:leve…
##  4 Presidential Vote (2020) 30% Democrat, 70% Republican att2         att2:leve…
##  5 Presidential Vote (2020) 50% Democrat, 50% Republican att2         att2:leve…
##  6 Presidential Vote (2020) 70% Democrat, 30% Republican att2         att2:leve…
##  7 Racial Composition       50% White, 50% Nonwhite      att3         att3:leve…
##  8 Racial Composition       75% White, 25% Nonwhite      att3         att3:leve…
##  9 Racial Composition       90% White, 10% Nonwhite      att3         att3:leve…
## 10 Racial Composition       96% White, 4% Nonwhite       att3         att3:leve…
## # ℹ 14 more rows
…
projoint_data <- function(labels, data) {
  structure(
    list(labels = labels, data = data),
    class = "projoint_data"
  )
}

📦 Setup

We use the already wrangled and cleaned data
out1_arranged.

out1_arranged$labels

## # A tibble: 24 × 4
##    attribute                     level                   attribute_id level_id  
##    <chr>                         <chr>                   <chr>        <chr>     
##  1 Housing Cost (Pre-tax Income) 15%                     att1         att1:leve…
##  2 Housing Cost (Pre-tax Income) 30%                     att1         att1:leve…
##  3 Housing Cost (Pre-tax Income) 40%                     att1         att1:leve…
##  4 Presidential Vote (2020)      50% Dem, 50% Rep        att2         att2:leve…
##  5 Presidential Vote (2020)      30% Dem, 70% Rep        att2         att2:leve…
##  6 Presidential Vote (2020)      70% Dem, 30% Rep        att2         att2:leve…
##  7 Racial Composition            50% White, 50% Nonwhite att3         att3:leve…
##  8 Racial Composition            75% White, 25% Nonwhite att3         att3:leve…
##  9 Racial Composition            90% White, 10% Nonwhite att3         att3:leve…
## 10 Racial Composition            96% White, 4% Nonwhite  att3         att3:leve…
## # ℹ 14 more rows
…
