FAQ Page • projoint
…
summary(mm0)

## 
## Summary of Projoint Estimates
## ------------------------------
## Estimand: mm
## Structure: profile_level
## Standard error method: analytical
## SE type (lm_robust):   CR2 (clustered by id)
## IRR: Estimated
## Tau: 0.172

## # A tibble: 48 × 6
##    estimand       estimate     se conf.low conf.high att_level_choose
##    <chr>             <dbl>  <dbl>    <dbl>     <dbl> <chr>           
##  1 mm_uncorrected    0.574 0.0142    0.546     0.602 att1:level1     
##  2 mm_corrected      0.614 0.0219    0.571     0.657 att1:level1     
##  3 mm_uncorrected    0.485 0.0136    0.458     0.511 att1:level2     
##  4 mm_corrected      0.477 0.0207    0.436     0.517 att1:level2     
##  5 mm_uncorrected    0.445 0.0142    0.417     0.472 att1:level3     
##  6 mm_corrected      0.416 0.0219    0.372     0.459 att1:level3     
##  7 mm_uncorrected    0.489 0.0150    0.459     0.518 att2:level1     
##  8 mm_corrected      0.483 0.0229    0.438     0.528 att2:level1     
##  9 mm_uncorrected    0.524 0.0133    0.497     0.550 att2:level2     
## 10 mm_corrected      0.536 0.0203    0.496     0.576 att2:level2     
## # ℹ 38 more rows
…
summary(amce0)

## 
## Summary of Projoint Estimates
## ------------------------------
## Estimand: amce
## Structure: profile_level
## Standard error method: analytical
## SE type (lm_robust):   CR2 (clustered by id)
## IRR: Estimated
## Tau: 0.172

## # A tibble: 34 × 7
##    estimand         estimate     se conf.low conf.high att_level_choose
##    <chr>               <dbl>  <dbl>    <dbl>     <dbl> <chr>           
##  1 amce_uncorrected -0.0899  0.0236  -0.136    -0.0435 att1:level2     
##  2 amce_corrected   -0.137   0.0360  -0.208    -0.0662 att1:level2     
##  3 amce_uncorrected -0.130   0.0250  -0.179    -0.0808 att1:level3     
##  4 amce_corrected   -0.198   0.0386  -0.274    -0.122  att1:level3     
##  5 amce_uncorrected  0.0348  0.0244  -0.0132    0.0828 att2:level2     
##  6 amce_corrected    0.0530  0.0372  -0.0202    0.126  att2:level2     
##  7 amce_uncorrected -0.00177 0.0263  -0.0536    0.0500 att2:level3     
##  8 amce_corrected   -0.00270 0.0402  -0.0817    0.0763 att2:level3     
##  9 amce_uncorrected  0.0240  0.0233  -0.0218    0.0699 att3:level2     
## 10 amce_corrected    0.0366  0.0357  -0.0336    0.107  att3:level2     
## # ℹ 24 more rows
## # ℹ 1 more variable: att_level_choose_baseline <chr>
…
