Introduction to projoint • projoint
…
dat

## # A tibble: 398 × 185
##    ResponseId     choice1_repeated_fli…¹ choice1 choice2 choice3 choice4 choice5
##    <chr>          <chr>                  <chr>   <chr>   <chr>   <chr>   <chr>  
##  1 R_yjYj0jtOY98… Community B            Commun… Commun… Commun… Commun… Commun…
##  2 R_1dKd05O6FTO… Community B            Commun… Commun… Commun… Commun… Commun…
##  3 R_1otDp642wWY… Community A            Commun… Commun… Commun… Commun… Commun…
##  4 R_2BnD3fuJMRK… Community A            Commun… Commun… Commun… Commun… Commun…
##  5 R_1cZo7yXoxo7… Community A            Commun… Commun… Commun… Commun… Commun…
##  6 R_2zo0OJ1CnBF… Community B            Commun… Commun… Commun… Commun… Commun…
##  7 R_9Zglxj22RFH… Community A            Commun… Commun… Commun… Commun… Commun…
##  8 R_NUBwH4ZBNCS… Community B            Commun… Commun… Commun… Commun… Commun…
##  9 R_1KiHr7ZV4cI… Community B            Commun… Commun… Commun… Commun… Commun…
## 10 R_2b2vVVm1bwn… Community A            Commun… Commun… Commun… Commun… Commun…
## # ℹ 388 more rows
## # ℹ abbreviated name: ¹​choice1_repeated_flipped
## # ℹ 178 more variables: choice6 <chr>, choice7 <chr>, choice8 <chr>,
## #   race <chr>, party_1 <chr>, party_2 <chr>, party_3 <chr>, party_4 <chr>,
## #   ideology <chr>, honesty <chr>, `K-1-1` <chr>, `K-1-1-1` <chr>,
## #   `K-1-2` <chr>, `K-1-1-2` <chr>, `K-1-3` <chr>, `K-1-1-3` <chr>,
## #   `K-1-4` <chr>, `K-1-1-4` <chr>, `K-1-5` <chr>, `K-1-1-5` <chr>, …
…
