Read and Wrangle Your Data • projoint
…
library(tidyverse)
library(projoint)

3. Read your CSV file into R using
read_Qualtrics()

# Example: If your file is located in a "data" folder
data <- read_Qualtrics("data/your_file.csv")

Or, if using an example bundled with projoint:

# Inspect the imported data:
data

## # A tibble: 518 × 218
##    StartDate           EndDate             Status     Progress
##    <dttm>              <dttm>              <chr>         <dbl>
##  1 2022-03-01 10:44:18 2022-03-01 10:44:43 IP Address      100
##  2 2022-03-01 10:44:06 2022-03-01 10:47:59 IP Address      100
##  3 2022-03-01 10:45:30 2022-03-01 10:49:03 IP Address      100
##  4 2022-03-01 10:52:18 2022-03-01 10:56:29 IP Address      100
##  5 2022-03-01 10:54:34 2022-03-01 10:57:30 IP Address      100
##  6 2022-03-01 10:56:51 2022-03-01 10:58:06 IP Address      100
##  7 2022-03-01 10:58:09 2022-03-01 11:00:45 IP Address      100
##  8 2022-03-01 11:01:43 2022-03-01 11:01:51 IP Address      100
##  9 2022-03-01 10:58:35 2022-03-01 11:03:44 IP Address      100
## 10 2022-03-01 11:00:14 2022-03-01 11:04:37 IP Address      100
## # ℹ 508 more rows
## # ℹ 214 more variables: `Duration (in seconds)` <dbl>, Finished <lgl>,
## #   RecordedDate <dttm>, ResponseId <chr>, DistributionChannel <chr>,
## #   UserLanguage <chr>, Q_RecaptchaScore <dbl>, Q1.2 <chr>, Q2.2 <chr>,
## #   Q2.3 <chr>, Q2.4 <chr>, Q2.5 <chr>, Q2.6 <chr>, Q2.7 <chr>, Q2.8 <chr>,
## #   Q2.9 <chr>, Q3.1 <chr>, Q4.2 <chr>, Q4.3 <chr>, Q4.4 <chr>, Q4.5 <chr>,
## #   Q4.6 <chr>, Q4.7 <chr>, Q4.8 <chr>, Q4.9 <chr>, Q5.1 <chr>, Q6.1 <chr>, …
…
fill_TRUE <- reshape_projoint(
  .dataframe = exampleData1,
  .outcomes = outcomes1,
  .fill = TRUE
)

Compare:

selected_vars <- c("id", "task", "profile", "selected", "selected_repeated", "agree")
fill_FALSE$data[selected_vars]

## # A tibble: 6,400 × 6
##    id                 task profile selected selected_repeated agree
##    <chr>             <dbl>   <dbl>    <dbl>             <dbl> <dbl>
##  1 R_00zYHdY1te1Qlrz     1       1        1                 1     1
##  2 R_00zYHdY1te1Qlrz     1       2        0                 0     1
##  3 R_00zYHdY1te1Qlrz     2       1        1                NA    NA
##  4 R_00zYHdY1te1Qlrz     2       2        0                NA    NA
##  5 R_00zYHdY1te1Qlrz     3       1        1                NA    NA
##  6 R_00zYHdY1te1Qlrz     3       2        0                NA    NA
##  7 R_00zYHdY1te1Qlrz     4       1        0                NA    NA
##  8 R_00zYHdY1te1Qlrz     4       2        1                NA    NA
##  9 R_00zYHdY1te1Qlrz     5       1        1                NA    NA
## 10 R_00zYHdY1te1Qlrz     5       2        0                NA    NA
## # ℹ 6,390 more rows

fill_TRUE$data[selected_vars]

## # A tibble: 6,400 × 6
##    id                 task profile selected selected_repeated agree
##    <chr>             <dbl>   <dbl>    <dbl>             <dbl> <dbl>
##  1 R_00zYHdY1te1Qlrz     1       1        1                 1     1
##  2 R_00zYHdY1te1Qlrz     1       2        0                 0     1
##  3 R_00zYHdY1te1Qlrz     2       1        1                NA     1
##  4 R_00zYHdY1te1Qlrz     2       2        0                NA     1
##  5 R_00zYHdY1te1Qlrz     3       1        1                NA     1
##  6 R_00zYHdY1te1Qlrz     3       2        0                NA     1
##  7 R_00zYHdY1te1Qlrz     4       1        0                NA     1
##  8 R_00zYHdY1te1Qlrz     4       2        1                NA     1
##  9 R_00zYHdY1te1Qlrz     5       1        1                NA     1
## 10 R_00zYHdY1te1Qlrz     5       2        0                NA     1
## # ℹ 6,390 more rows
…
